[
    {
        "screen_name": "DavideSutera",
        "username": "Sutera Davide",
        "user_id": "1064076380646907906",
        "tweet_id": "1234068165300310018",
        "tweet_url": "/DavideSutera/status/1234068165300310018",
        "timestamp": "2020-03-01 10:49:13",
        "timestamp_epochs": 1583059753,
        "text": "Sei a Mosca in Giappone mattè? Ma l'idea di mettere i pensionati (più vulnerabili) in prima linea negli ospedali a Gallera l'hai data tu, vero? #IRRESPONSABILI #INCOMPETENTI #LEGA",
        "text_html": "<p class=\"TweetTextSize js-tweet-text tweet-text\" data-aria-label-part=\"0\" lang=\"it\">Sei a Mosca in Giappone mattè? Ma l'idea di mettere i pensionati (più vulnerabili) in prima linea negli ospedali a Gallera l'hai data tu, vero? <a class=\"twitter-hashtag pretty-link js-nav\" data-query-source=\"hashtag_click\" dir=\"ltr\" href=\"/hashtag/IRRESPONSABILI?src=hash\"><s>#</s><b><strong>IRRESPONSABILI</strong></b></a> <a class=\"twitter-hashtag pretty-link js-nav\" data-query-source=\"hashtag_click\" dir=\"ltr\" href=\"/hashtag/INCOMPETENTI?src=hash\"><s>#</s><b>INCOMPETENTI</b></a> <a class=\"twitter-hashtag pretty-link js-nav\" data-query-source=\"hashtag_click\" dir=\"ltr\" href=\"/hashtag/LEGA?src=hash\"><s>#</s><b>LEGA</b></a></p>",
        "links": [],
        "hashtags": [
            "IRRESPONSABILI",
            "INCOMPETENTI",
            "LEGA"
        ],
        "has_media": false,
        "img_urls": [],
        "video_url": "",
        "likes": 0,
        "retweets": 0,
        "replies": 0,
        "is_replied": false,
        "is_reply_to": true,
        "parent_tweet_id": "1233731884821155846",
        "reply_to_users": [
            {
                "screen_name": "matteosalvinimi",
                "user_id": "270839361"
            }
        ]
    },
    {
        "screen_name": "DavideSutera",
        "username": "Sutera Davide",
        "user_id": "1064076380646907906",
        "tweet_id": "1234068165300310018",
        "tweet_url": "/DavideSutera/status/1234068165300310018",
        "timestamp": "2020-03-01 10:49:13",
        "timestamp_epochs": 1583059753,
        "text": "Sei a Mosca in Giappone mattè? Ma l'idea di mettere i pensionati (più vulnerabili) in prima linea negli ospedali a Gallera l'hai data tu, vero? #IRRESPONSABILI #INCOMPETENTI #LEGA",
        "text_html": "<p class=\"TweetTextSize js-tweet-text tweet-text\" data-aria-label-part=\"0\" lang=\"it\">Sei a Mosca in Giappone mattè? Ma l'idea di mettere i pensionati (più vulnerabili) in prima linea negli ospedali a Gallera l'hai data tu, vero? <a class=\"twitter-hashtag pretty-link js-nav\" data-query-source=\"hashtag_click\" dir=\"ltr\" href=\"/hashtag/IRRESPONSABILI?src=hash\"><s>#</s><b><strong>IRRESPONSABILI</strong></b></a> <a class=\"twitter-hashtag pretty-link js-nav\" data-query-source=\"hashtag_click\" dir=\"ltr\" href=\"/hashtag/INCOMPETENTI?src=hash\"><s>#</s><b>INCOMPETENTI</b></a> <a class=\"twitter-hashtag pretty-link js-nav\" data-query-source=\"hashtag_click\" dir=\"ltr\" href=\"/hashtag/LEGA?src=hash\"><s>#</s><b>LEGA</b></a></p>",
        "links": [],
        "hashtags": [
            "IRRESPONSABILI",
            "INCOMPETENTI",
            "LEGA"
        ],
        "has_media": false,
        "img_urls": [],
        "video_url": "",
        "likes": 0,
        "retweets": 0,
        "replies": 0,
        "is_replied": false,
        "is_reply_to": true,
        "parent_tweet_id": "1233731884821155846",
        "reply_to_users": [
            {
                "screen_name": "matteosalvinimi",
                "user_id": "270839361"
            }
        ]
    }
]